<svg version="1.1" xmlns="http://www.w3.org/2000/svg" xmlns:xlink="http://www.w3.org/1999/xlink" width="24" height="24" style="" xml:space="preserve"><rect id="backgroundrect" width="100%" height="100%" x="0" y="0" fill="none" stroke="none"/>


<g class="currentLayer" style=""><title>Layer 1</title><g id="Icons" style="opacity:0.75;" class="selected" fill="#dadada" fill-opacity="1">
	<g id="reference" fill="#dadada" fill-opacity="1">
		<path d="M7,6.5C7,5.953,8,6,8,6h9c0-0.276-0.447-1-1-1H8C6.667,5,6,5.447,6,6v12c0,0.553,0.447,1,1,1h10c0.553,0,1-0.447,1-1V8    c0,0,0-1-1-1s-2.158,0-4,0v7l-2.001-2L9,14V7H8C8,7,7,7,7,6.5z" id="svg_1" fill="#dadada" fill-opacity="1"/>
	</g>
</g><g id="Guides">
</g></g></svg>