<svg width="256" height="295" version="1.1" xmlns="http://www.w3.org/2000/svg" xmlns:xlink="http://www.w3.org/1999/xlink" preserveAspectRatio="xMidYMid" style=""><rect id="backgroundrect" width="100%" height="100%" x="0" y="0" fill="none" stroke="none"/>
	
<g class="currentLayer" style=""><title>Layer 1</title><g id="svg_1" class="selected">
		<path d="M129.0443115234375,37.5621395111084 C73.76763916015625,37.5621395111084 29.03304100036621,80.94215393066406 29.03304100036621,134.54498291015625 C29.03304100036621,181.73899841308594 63.91971206665039,220.9524688720703 109.95819091796875,229.67701721191406 L109.95819091796875,257.43927001953125 C169.81283569335938,248.6885986328125 222.8105010986328,202.61441040039062 226.76524353027344,142.1333465576172 C229.14564514160156,105.72880554199219 210.42779541015625,68.56418228149414 178.8590850830078,50.51786804199219 C177.05162048339844,49.48463439941406 175.21527099609375,48.45890808105469 173.3240966796875,47.55655288696289 C171.3970947265625,46.63709259033203 169.41824340820312,45.740966796875 167.40740966796875,44.96540832519531 C166.7691192626953,44.70648193359375 166.1436767578125,44.471595764160156 165.49880981445312,44.22508239746094 C163.74252319335938,43.59638977050781 161.9703826904297,42.888427734375 160.1546630859375,42.374263763427734 C150.36839294433594,39.24637794494629 139.90695190429688,37.5621395111084 129.0443115234375,37.5621395111084 L129.0443115234375,37.5621395111084 L129.0443115234375,37.5621395111084 z" fill="#00A818" id="svg_2"/>
		<path d="M149.76296997070312,73.39730072021484 C146.33482360839844,73.0565185546875 142.72500610351562,74.21331024169922 140.20050048828125,77.1064682006836 C138.364501953125,79.48033905029297 137.2169952392578,81.78001403808594 135.99301147460938,84.15388488769531 C132.32101440429688,92.46240997314453 133.54502868652344,101.3644027709961 139.05300903320312,107.89253234863281 C147.62098693847656,106.11214447021484 154.88845825195312,100.80803680419922 158.56045532226562,92.49950408935547 C159.78443908691406,90.12564086914062 160.4729461669922,87.08412170410156 160.4729461669922,84.71025848388672 C160.85545349121094,78.40467071533203 155.47654724121094,73.96526336669922 149.76296997070312,73.39730072021484 L149.76296997070312,73.39730072021484 L149.76296997070312,73.39730072021484 zM105.20185089111328,73.95367431640625 C99.61376953125,74.46947479248047 94.3006362915039,78.77559661865234 94.3006362915039,84.71025848388672 C94.3006362915039,87.08412170410156 94.98912048339844,90.12564086914062 96.21311950683594,92.49950408935547 C99.88511657714844,100.80803680419922 107.7263412475586,106.11214447021484 116.29431915283203,107.89253234863281 C121.19029998779297,101.3644027709961 122.45254516601562,92.46240997314453 118.78055572509766,84.15388488769531 C117.55655670166016,81.78001403808594 116.4090805053711,79.4432373046875 114.57306671142578,77.66284942626953 C112.048583984375,74.76969146728516 108.55469512939453,73.6441879272461 105.20185089111328,73.95367431640625 L105.20185089111328,73.95367431640625 L105.20185089111328,73.95367431640625 zM75.17566680908203,102.51425170898438 C65.52503967285156,102.99454498291016 61.21446228027344,114.75450134277344 69.2469482421875,120.87461853027344 C71.69493103027344,122.65502166748047 74.06643676757812,123.95323181152344 76.51441955566406,125.14016723632812 C85.0823974609375,128.70095825195312 94.98912048339844,127.4769515991211 102.3331069946289,122.72920227050781 C100.49711608886719,115.01414489746094 94.26238250732422,107.92963409423828 85.69439697265625,104.36884307861328 C82.63440704345703,103.1819076538086 80.14816284179688,102.51425170898438 77.08816528320312,102.51425170898438 C76.39967346191406,102.44007110595703 75.81904602050781,102.4822006225586 75.17566680908203,102.51425170898438 L75.17566680908203,102.51425170898438 L75.17566680908203,102.51425170898438 zM169.461669921875,138.49319458007812 C163.85568237304688,138.3888397216797 158.17796325683594,139.9768524169922 153.5879669189453,142.9441680908203 C155.42396545410156,150.6592254638672 161.65869140625,157.74374389648438 170.22666931152344,161.30455017089844 C173.2866668701172,162.49147033691406 175.77291870117188,163.15911865234375 178.83290100097656,163.15911865234375 C189.84886169433594,163.75257873535156 195.2421112060547,150.54795837402344 186.67413330078125,144.61328125 C184.22613525390625,142.83290100097656 181.85464477539062,141.72015380859375 179.40664672851562,140.533203125 C176.1936492919922,139.19790649414062 172.82525634765625,138.55577087402344 169.461669921875,138.49319458007812 L169.461669921875,138.49319458007812 L169.461669921875,138.49319458007812 zM85.88565826416016,139.04954528808594 C82.52204895019531,139.11216735839844 79.1536636352539,139.75428771972656 75.94068145751953,141.08958435058594 C72.88067626953125,142.27651977539062 70.50918579101562,143.57473754882812 68.67317962646484,145.35513305664062 C60.71721267700195,151.88327026367188 66.07220458984375,164.3089599609375 77.08816528320312,163.71548461914062 C80.14816284179688,163.71548461914062 83.24640655517578,163.04783630371094 85.69439697265625,161.8609161376953 C94.26238250732422,158.30010986328125 100.34410095214844,151.21560668945312 101.56809997558594,143.50054931640625 C96.97811889648438,140.533203125 91.49165344238281,138.94522094726562 85.88565826416016,139.04954528808594 L85.88565826416016,139.04954528808594 L85.88565826416016,139.04954528808594 zM116.86805725097656,157.22445678710938 C108.30009460449219,159.00486755371094 101.03260040283203,164.3089599609375 97.3606185913086,172.6174774169922 C96.1366195678711,174.99134826660156 95.4481201171875,177.847412109375 95.4481201171875,180.22128295898438 C94.83612060546875,190.31021118164062 109.0268325805664,195.7255859375 115.1468276977539,188.01052856445312 C116.98281860351562,185.63665771484375 118.13031005859375,183.33697509765625 119.35430145263672,180.96311950683594 C123.02629852294922,173.24806213378906 121.76405334472656,164.34603881835938 116.86805725097656,157.22445678710938 L116.86805725097656,157.22445678710938 L116.86805725097656,157.22445678710938 zM139.6267547607422,157.78082275390625 C134.73077392578125,164.3089599609375 133.46852111816406,173.21095275878906 137.1405029296875,181.5194854736328 C138.364501953125,183.8933563232422 139.5120086669922,186.2301483154297 141.3480224609375,188.01052856445312 C148.07998657226562,195.13214111328125 162.23243713378906,189.8651123046875 161.6204376220703,180.96311950683594 C161.6204376220703,178.58926391601562 160.9319305419922,175.54774475097656 159.70794677734375,173.17388916015625 C156.0359649658203,164.86534118652344 148.19473266601562,159.5612335205078 139.6267547607422,157.78082275390625 L139.6267547607422,157.78082275390625 L139.6267547607422,157.78082275390625 z" fill="#FFFFFF" id="svg_3"/>
	</g><rect fill="#dadada" style="color: rgb(0, 0, 0);" stroke-dashoffset="" fill-rule="nonzero" id="svg_4" x="-2900.354965209961" y="-555.6774263381958" width="1950" height="1296" class="" opacity="0"/><rect fill="#dadada" style="color: rgb(0, 0, 0);" stroke-dashoffset="" fill-rule="nonzero" opacity="0.01" id="svg_6" x="1050" y="279" width="3" height="0"/></g></svg>