<?xml version="1.0" encoding="utf-8"?>
<svg xmlns="http://www.w3.org/2000/svg" xmlns:xlink="http://www.w3.org/1999/xlink" style="margin: auto; background: rgba(0, 0, 0, 0) none repeat scroll 0% 0%; display: block; shape-rendering: auto;" width="200px" height="200px" viewBox="0 0 100 100" preserveAspectRatio="xMidYMid">
<g>
  <path d="M50 15A35 35 0 1 0 74.74873734152916 25.251262658470843" fill="none" stroke="#56ae59" stroke-width="12"></path>
  <path d="M49 3L49 27L61 15L49 3" fill="#56ae59"></path>
  <animateTransform attributeName="transform" type="rotate" repeatCount="indefinite" dur="1.4925373134328357s" values="0 50 50;360 50 50" keyTimes="0;1"></animateTransform>
</g>
<!-- [ldio] generated by https://loading.io/ --></svg>